0000 0000 0000 0000 0000 0000 0000 0000	0000 0000 0000 0000 0000 0000 0000 0000	0000 0000 0000 0000 0000 0000 0000 0000	0000 0000 0000 0000 0000 0000 0000 0000	0000 0000 0000 0000 0000 0000 0000 0000	0000 0000 0000 0000 0000 0000 0000 0000	0000 0000 0000 0000 0000 0000 0000 0000	0000 0000 0000 0000 0000 0000 0000 0000	0000 0000 0000 0000	0000 0000 0000 0000 0000 0000 0000 0000	0000 0000 1000 0100 0000 0110 0110 0011
0000 0000 0000 0000 0000 0000 0000 0000	0000 0000 0000 0000 0000 0000 0000 0000	0000 0000 0000 0000 0000 0000 0000 0000	0000 0000 0000 0000 0000 0000 0000 0000	0000 0000 0000 0000 0000 0000 0000 0000	0000 0000 0000 0000 0000 0000 0000 0000	0000 0000 0000 0000 0000 0000 0000 0000	0000 0000 0000 0000 0000 0000 0000 0000	0000 0000 0000 0001	0000 0000 0000 0000 0000 0000 0000 0110	1111 1110 1100 0100 1000 0100 1001 0011
0000 0000 0000 0000 0000 0000 0000 0000	0000 0000 0000 0000 0000 0000 0000 0000	0000 0000 0000 0000 0000 0000 0000 0000	0000 0000 0000 0000 0000 0000 0000 0000	0000 0000 0000 0000 0000 0000 0000 0000	0000 0000 0000 0000 0000 0000 0000 0000	1111 1111 1111 1111 1111 1111 1110 1100	0000 0000 0000 0000 0000 0000 0000 0000	0000 0000 0000 0010	0011 1111 1111 1111 1111 1111 1111 1011	0000 0000 0000 0000 0000 0000 0000 0000
0000 0000 0000 0000 0000 0000 0000 0000	0000 0000 0000 0000 0000 0000 0000 0000	0000 0000 0000 0000 0000 0000 0000 0000	0000 0000 0000 0000 0000 0000 0000 0000	0000 0000 0000 0000 0000 0000 0000 0000	0000 0000 0000 0000 0000 0000 0000 0000	1111 1111 1111 1111 1111 1111 1110 1100	0000 0000 0000 0000 0000 0000 0000 0000	0000 0000 0000 0011	0000 0000 0000 0000 0000 0000 0000 0000	0000 0000 1000 0100 0000 0110 0110 0011
0000 0000 0000 0000 0000 0000 0000 0000	0000 0000 0000 0000 0000 0000 0000 0000	0000 0000 0000 0000 0000 0000 0000 0000	0000 0000 0000 0000 0000 0000 0000 0000	0000 0000 0000 0000 0000 0000 0000 0000	0000 0000 0000 0000 0000 0000 0000 0000	1111 1111 1111 1111 1111 1111 1110 1100	0000 0000 0000 0000 0000 0000 0000 0000	0000 0000 0000 0100	0000 0000 0000 0000 0000 0000 0000 0110	1111 1110 1100 0100 1000 0100 1001 0011
0000 0000 0000 0000 0000 0000 0000 0000	0000 0000 0000 0000 0000 0000 0000 0000	0000 0000 0000 0000 0000 0000 0000 0000	0000 0000 0000 0000 0000 0000 0000 0000	0000 0000 0000 0000 0000 0000 0000 0000	0000 0000 0000 0000 0000 0000 0000 0000	1111 1111 1111 1111 1111 1111 1101 1000	0000 0000 0000 0000 0000 0000 0000 0000	0000 0000 0000 0101	0000 0000 0000 0000 0000 0000 0000 0111	0000 0000 1001 0100 0110 1010 0110 0011
0000 0000 0000 0000 0000 0000 0000 0000	0000 0000 0000 0000 0000 0000 0000 0000	0000 0000 0000 0000 0000 0000 0000 0000	0000 0000 0000 0000 0000 0000 0000 0000	0000 0000 0000 0000 0000 0000 0000 0000	0000 0000 0000 0000 0000 0000 0000 0000	1111 1111 1111 1111 1111 1111 1101 1000	0000 0000 0000 0000 0000 0000 0000 0000	0000 0000 0000 0110	0000 0000 0000 0000 0000 0000 0001 0001	0000 0000 0000 0000 0000 0000 0000 0000
0000 0000 0000 0000 0000 0000 0000 0000	0000 0000 0000 0000 0000 0000 0000 0000	0000 0000 0000 0000 0000 0000 0000 0000	0000 0000 0000 0000 0000 0000 0000 0000	0000 0000 0000 0000 0000 0000 0000 0000	0000 0000 0000 0000 0000 0000 0000 0000	1111 1111 1111 1111 1111 1111 1101 1000	0000 0000 0000 0000 0000 0000 0000 0000	0000 0000 0000 0111	0000 0000 0000 0000 0000 0000 0000 0000	0000 0000 1000 0100 0000 0110 0110 0011
0000 0000 0000 0000 0000 0000 0000 0000	0000 0000 0000 0000 0000 0000 0000 0000	0000 0000 0000 0000 0000 0000 0000 0000	0000 0000 0000 0000 0000 0000 0000 0000	0000 0000 0000 0000 0000 0000 0000 0000	0000 0000 0000 0000 0000 0000 0000 0000	1111 1111 1111 1111 1111 1111 1101 1000	0000 0000 0000 0000 0000 0000 0000 0000	0000 0000 0000 1000	0000 0000 0000 0000 0000 0000 0000 0110	1111 1110 1100 0100 1000 0100 1001 0011
0000 0000 0000 0000 0000 0000 0000 0000	0000 0000 0000 0000 0000 0000 0000 0000	0000 0000 0000 0000 0000 0000 0000 0000	0000 0000 0000 0000 0000 0000 0000 0000	0000 0000 0000 0000 0000 0000 0000 0000	0000 0000 0000 0000 0000 0000 0000 0000	1111 1111 1111 1111 1111 1111 1100 0100	0000 0000 0000 0000 0000 0000 0000 0000	0000 0000 0000 1001	0000 0000 0000 0000 0000 0000 0000 0111	0000 0000 1001 0100 0110 1010 0110 0011
0000 0000 0000 0000 0000 0000 0000 0000	0000 0000 0000 0000 0000 0000 0000 0000	0000 0000 0000 0000 0000 0000 0000 0000	0000 0000 0000 0000 0000 0000 0000 0000	0000 0000 0000 0000 0000 0000 0000 0000	0000 0000 0000 0000 0000 0000 0000 0000	1111 1111 1111 1111 1111 1111 1100 0100	0000 0000 0000 0000 0000 0000 0000 0000	0000 0000 0000 1010	0000 0000 0000 0000 0000 0000 0001 0001	0000 0000 0000 0000 0000 0000 0000 0000
0000 0000 0000 0000 0000 0000 0000 0000	0000 0000 0000 0000 0000 0000 0000 0000	0000 0000 0000 0000 0000 0000 0000 0000	0000 0000 0000 0000 0000 0000 0000 0000	0000 0000 0000 0000 0000 0000 0000 0000	0000 0000 0000 0000 0000 0000 0000 0000	1111 1111 1111 1111 1111 1111 1100 0100	0000 0000 0000 0000 0000 0000 0000 0000	0000 0000 0000 1011	0000 0000 0000 0000 0000 0000 0000 0000	0000 0000 1000 0100 0000 0110 0110 0011
0000 0000 0000 0000 0000 0000 0000 0000	0000 0000 0000 0000 0000 0000 0000 0000	0000 0000 0000 0000 0000 0000 0000 0000	0000 0000 0000 0000 0000 0000 0000 0000	0000 0000 0000 0000 0000 0000 0000 0000	0000 0000 0000 0000 0000 0000 0000 0000	1111 1111 1111 1111 1111 1111 1100 0100	0000 0000 0000 0000 0000 0000 0000 0000	0000 0000 0000 1100	0000 0000 0000 0000 0000 0000 0000 0110	1111 1110 1100 0100 1000 0100 1001 0011
0000 0000 0000 0000 0000 0000 0000 0000	0000 0000 0000 0000 0000 0000 0000 0000	0000 0000 0000 0000 0000 0000 0000 0000	0000 0000 0000 0000 0000 0000 0000 0000	0000 0000 0000 0000 0000 0000 0000 0000	0000 0000 0000 0000 0000 0000 0000 0000	1111 1111 1111 1111 1111 1111 1011 0000	0000 0000 0000 0000 0000 0000 0000 0000	0000 0000 0000 1101	0000 0000 0000 0000 0000 0000 0000 0111	0000 0000 1001 0100 0110 1010 0110 0011
